*ndp3*
*ndp45-*
*NDP46-*
*o2k*
*oxp*
*ofc*
*w2k*
*wxp*
*/w60/*
*/w61/*
*/w62/*
*/w60-x64/*
*/w61-x64/*
*/w62-x64/*
*/w63-x64/*
*w100*
*/*/x64-glb/*
*vcredist*_x64*
*dotnetfx35*
*MSEInstall*
*.au3
*.cpp
