{FE6FF6ED-93DE-42E3-991D-346F0C1FC187}
{1D88C674-5064-4E7F-BB8C-1E6F8374C35D}
{0DA2670C-83CF-4F3A-929C-19FB3C26B094}
{0247081A-1F68-4F20-BC87-07F5A66E5CB9}
{1219DD98-A1A0-44BD-9ED1-B58F31F52F31}
{96EB5175-8755-4344-B5C1-3996EB58D8A4}
{B94AF321-5E81-424B-BD31-9483ECB90861}
{8928FF63-BC22-4754-819D-B36FE0906467}
{8232A2BA-8247-472C-96BE-3B6592DFE713}
{ACA0A1BB-E1DC-4CE9-8A36-D985EBC75CCF}
{46BE0468-18E5-4BF3-9373-92BB9082C8B6}
{44B62A02-2BA8-4882-BC0F-B0050A052283}
{879C9645-ADF3-4697-915B-00B76EBA629F}
{DD901386-A294-4FF1-A683-0EFF5C66209A}
{773EF543-570F-4746-953A-3CB19DFCB3E2}
{242DA4DC-A867-48E0-928D-3C522ECB19C7}
{C258244B-F999-4CEC-B86C-085AB582275A}
{B95E21EB-9D36-4DA0-8317-243E405DFBC8}
{DDBF9749-FF6E-419C-BAAD-9F4948B75DDE}
{0541E599-10CB-44F4-A33A-32FE6DEA2F49}
{54F41FBB-AB2F-46B5-AA28-3C9492066E9C}
{92A4F25F-BF29-4B3C-A206-7F46AEE24E9D}
{12B6D916-FD64-471C-8EF7-C04443A75F8D}
{7DFB3C1E-0E1D-40E9-B2B1-D05C0795950F}
{378936F7-16BD-4FC6-8676-1BB315774CEE}
{7B4FA5D2-7F01-41A3-82D0-3056633D78BF}
{D9147579-CAC4-4333-AA95-3AC86BBD2B10}
{D55E73D8-86EB-4FC3-A957-54616AA3D961}
{8313C056-53A4-4845-B03E-5C27165DC2F1}
{AB193EEE-76AF-43D3-BFC1-823EE43D7738}
{607A9135-1477-43AB-A8B0-7690DC1C58D3}
{D1368E0E-D6FB-4C42-9132-885E5C23DB05}
{0FFA44C0-CFC0-4C1B-AACC-2C4BE1CDDB37}
{9E190CBD-B034-491A-BD02-BDDBB4D67F74}
{15150450-57AB-4186-B520-329EED51AF7A}
{303BF805-644E-4A76-8964-B39786190EAC}
