{42FA1C47-718A-3946-9570-144D5B9FAFA9}
{538D264D-7A4A-32F4-ADE5-A3E1A371C99D}
{16CF34DE-5F61-3FB1-8E86-C216EF723C97}
{F83B2DFF-EA6A-3CBE-BB0D-3825BC74F747}
{4CFF18E0-1998-37CA-AAE3-F849BFF084F5}
{AAA849D6-177C-3964-A584-00FCBC7EE278}
{CF6CAF7B-A770-3206-B989-3266825FDC2E}
{DCCBB099-EF13-3D8D-9217-B63E0FB4E7D4}
{4978EB19-4EE2-3547-B070-DB601A6D5B0E}
{B3CDEF60-7D28-332C-8845-682E6DAAEA80}
{E2CD083D-70F3-31DE-B295-7D06B58FC815}
{3D00715C-E6E6-3F40-B075-594D6F9CCE23}
