{364D5AED-307A-423D-AABC-E68FFDDAA513};Microsoft .NET Runtime - 5.0.0 (x86)
{C8878F77-0D03-4303-ACBA-C114001B3261};Microsoft .NET Host - 5.0.0 (x86)
{C1213BF8-6544-4AB7-A439-6ECAF59C64F2};Microsoft .NET Host FX Resolver - 5.0.0 (x86)
{138E0C15-7714-4E60-BCED-E3A113C82CBC};Microsoft .NET Runtime - 5.0.1 (x86)
{C0311FD6-C773-4F5C-804A-CE7E5E03CCF3};Microsoft .NET Host - 5.0.1 (x86)
{22617777-0F0E-4CB8-BDA6-9EC8F8B0E0F1};Microsoft .NET Host FX Resolver - 5.0.1 (x86)
{CEEEECCE-966D-48A1-B749-6B96234F1AC7};Microsoft .NET Runtime - 5.0.2 (x86)
{5104ADBB-A3FB-4C78-925F-E33F7E1D583B};Microsoft .NET Host - 5.0.2 (x86)
{DC647658-970C-4A85-9BB6-904DA560ACC5};Microsoft .NET Host FX Resolver - 5.0.2 (x86)
{DAF07BBD-5B8A-42A3-A999-73E0F254674E};Microsoft .NET Runtime - 5.0.3 (x86)
{5156032D-9AA4-4FBA-A95B-2E4C51F5D75F};Microsoft .NET Host - 5.0.3 (x86)
{1D90FBAF-EB02-433A-BC8A-AEA2F4C8113E};Microsoft .NET Host FX Resolver - 5.0.3 (x86)
{D523398E-D0EE-4F91-AE81-A27222A621DA};Microsoft .NET Runtime - 5.0.4 (x86)
{9BFB6AF7-641C-4B52-82CA-43F5A4FD288E};Microsoft .NET Host - 5.0.4 (x86)
{79D32D19-A148-4E8E-AC31-2FC90CDBBFA8};Microsoft .NET Host FX Resolver - 5.0.4 (x86)
{91B1AA78-9AAB-47D1-A583-4641370F9DF1};Microsoft .NET Runtime - 5.0.5 (x86)
{5B3D23D6-96E7-4886-8798-1217A0A05658};Microsoft .NET Host - 5.0.5 (x86)
{DA53DC9B-1F25-42A7-8D13-0E407C7AB54D};Microsoft .NET Host FX Resolver - 5.0.5 (x86)
{0F2A0A44-FECA-4319-9B1F-C11E7970DB92};Microsoft .NET Runtime - 5.0.6 (x86)
{55393E9A-5DE4-4D84-B79B-3D71A8958E3C};Microsoft .NET Host - 5.0.6 (x86)
{A7E1B29A-2F60-4E86-98BD-78D79044D5E8};Microsoft .NET Host FX Resolver - 5.0.6 (x86)
{33B485CD-DF03-4123-B1E9-DCFF2FA57D17};Microsoft .NET Runtime - 5.0.7 (x86)
{F3CF4DF2-A8A1-4400-B437-184FD2ADC5A0};Microsoft .NET Host - 5.0.7 (x86)
{26AAFE2E-986E-46AE-84BB-A1B08DD002BB};Microsoft .NET Host FX Resolver - 5.0.7 (x86)
{EDA956CC-79D8-4313-8547-C7CBC06CCD35};Microsoft .NET Runtime - 5.0.8 (x86)
{A75B3CBC-19C4-40ED-959F-0CC6419F2053};Microsoft .NET Host - 5.0.8 (x86)
{CEC66B98-E97F-4A6E-9A09-5C43D97FEF7E};Microsoft .NET Host FX Resolver - 5.0.8 (x86)
{6C2A2599-3BC4-4C51-8F56-5BA64582E625};Microsoft .NET Runtime - 5.0.9 (x86)
{5C742CE3-6DA4-4B12-A7D0-77D38311297C};Microsoft .NET Host - 5.0.9 (x86)
{4CF1A983-085C-4CB4-A844-FD633C0EE956};Microsoft .NET Host FX Resolver - 5.0.9 (x86)
{17675144-2D5B-4BA3-AF21-A65F7D824149};Microsoft .NET Runtime - 5.0.10 (x86)
{EEC610D2-6934-4567-A658-092A1429A21A};Microsoft .NET Host - 5.0.10 (x86)
{29F55E7D-9FB8-4F1D-A233-1F5995CB0FF5};Microsoft .NET Host FX Resolver - 5.0.10 (x86)
{92937E82-5B70-4246-B5FF-D2CFF861E9BD};Microsoft .NET Runtime - 5.0.11 (x86)
{278C03FD-0ED9-4B80-BF05-006718AB6F12};Microsoft .NET Host - 5.0.11 (x86)
{7A81E3CE-CEE8-4D1A-A72E-69B8A7808DCC};Microsoft .NET Host FX Resolver - 5.0.11 (x86)
{2C54E947-8A24-48B6-A06B-D41F9E525697};Microsoft .NET Runtime - 5.0.12 (x86)
{9BB0864C-F1F6-4703-9308-A53D4E901868};Microsoft .NET Host - 5.0.12 (x86)
{BAA79920-74A8-4B01-BB8A-46949BD4F729};Microsoft .NET Host FX Resolver - 5.0.12 (x86)

{445166D9-79B3-4768-B515-4B7FCD43DF8E};Microsoft Windows Desktop Runtime - 5.0.0 (x86)
{11A04ABA-50D9-47DC-9AEB-DB0A0CB14D67};Microsoft Windows Desktop Runtime - 5.0.1 (x86)
{12796D2F-D957-4590-A73F-FEC287A09084};Microsoft Windows Desktop Runtime - 5.0.2 (x86)
{703B3203-4E02-48D9-B1B2-D0BE152B6A67};Microsoft Windows Desktop Runtime - 5.0.3 (x86)
{0F1B4D8B-545C-4C65-BA29-3F564C2F6915};Microsoft Windows Desktop Runtime - 5.0.4 (x86)
{A9100055-C26A-4E9B-A66A-8BA4F95EEEF5};Microsoft Windows Desktop Runtime - 5.0.5 (x86)
{F3FBBC01-0B54-4A50-A9E5-8F254155F354};Microsoft Windows Desktop Runtime - 5.0.6 (x86)
{A7240B8F-4FFB-4D28-9A64-A355D277D031};Microsoft Windows Desktop Runtime - 5.0.7 (x86)
{6CA1201E-6C1D-45E9-AECB-FDA4FB4D1D12};Microsoft Windows Desktop Runtime - 5.0.8 (x86)
{B9FE9CD0-8E60-4C5C-B9B5-4D91818C2503};Microsoft Windows Desktop Runtime - 5.0.9 (x86)
{DCE5198A-7449-4F9F-A630-C8363759D0FB};Microsoft Windows Desktop Runtime - 5.0.10 (x86)
{0C92B7E7-C5F0-4ECC-82D2-89F7A7898204};Microsoft Windows Desktop Runtime - 5.0.11 (x86)
{00FE5937-D72D-4210-9584-029B4AB3A122};Microsoft Windows Desktop Runtime - 5.0.12 (x86)

{6BD7DD23-C813-3592-931C-74A5812AF305};Microsoft ASP.NET Core 5.0.0 Shared Framework (x86)
{C30E7D63-6765-3027-8E8B-C0CEBECA99E3};Microsoft ASP.NET Core 5.0.1 Shared Framework (x86)
{AB3B44E4-EED8-38D0-8BA0-A71F29008D39};Microsoft ASP.NET Core 5.0.2 Shared Framework (x86)
{8A9E49E0-31F2-37E7-B5CF-5B3B1E8BFE0C};Microsoft ASP.NET Core 5.0.3 Shared Framework (x86)
{79B5F0AE-6833-32C9-9370-20830ED770B2};Microsoft ASP.NET Core 5.0.4 Shared Framework (x86)
{53210509-DA25-3D24-A51D-4A0D9EF1407C};Microsoft ASP.NET Core 5.0.5 Shared Framework (x86)
{72C936C0-437A-311C-B9FD-FE873D26CF22};Microsoft ASP.NET Core 5.0.6 Shared Framework (x86)
{ADD2F32E-92D0-3E8E-B481-5AA92584E1DA};Microsoft ASP.NET Core 5.0.7 Shared Framework (x86)
{8914B4E2-E6CB-3D79-AB64-0BF5DFEA2657};Microsoft ASP.NET Core 5.0.8 Shared Framework (x86)
{EAF19DA2-B2B2-3B80-959F-801C3DA56B2D};Microsoft ASP.NET Core 5.0.9 Shared Framework (x86)
{DC0CFDC9-C541-32D7-8D54-6A25843937EA};Microsoft ASP.NET Core 5.0.10 Shared Framework (x86)
{9DF1BA7B-E36E-3D03-AF40-BA65744A16F1};Microsoft ASP.NET Core 5.0.11 Shared Framework (x86)
{BF6D2885-A887-3668-9E97-6BF040A60FBD};Microsoft ASP.NET Core 5.0.12 Shared Framework (x86)

{FE6FF6ED-93DE-42E3-991D-346F0C1FC187};Microsoft .NET Runtime - 5.0.0 (x64)
{1D88C674-5064-4E7F-BB8C-1E6F8374C35D};Microsoft .NET Host - 5.0.0 (x64)
{0DA2670C-83CF-4F3A-929C-19FB3C26B094};Microsoft .NET Host FX Resolver - 5.0.0 (x64)
{0247081A-1F68-4F20-BC87-07F5A66E5CB9};Microsoft .NET Runtime - 5.0.1 (x64)
{1219DD98-A1A0-44BD-9ED1-B58F31F52F31};Microsoft .NET Host - 5.0.1 (x64)
{96EB5175-8755-4344-B5C1-3996EB58D8A4};Microsoft .NET Host FX Resolver - 5.0.1 (x64)
{B94AF321-5E81-424B-BD31-9483ECB90861};Microsoft .NET Runtime - 5.0.2 (x64)
{8928FF63-BC22-4754-819D-B36FE0906467};Microsoft .NET Host - 5.0.2 (x64)
{8232A2BA-8247-472C-96BE-3B6592DFE713};Microsoft .NET Host FX Resolver - 5.0.2 (x64)
{ACA0A1BB-E1DC-4CE9-8A36-D985EBC75CCF};Microsoft .NET Runtime - 5.0.3 (x64)
{46BE0468-18E5-4BF3-9373-92BB9082C8B6};Microsoft .NET Host - 5.0.3 (x64)
{44B62A02-2BA8-4882-BC0F-B0050A052283};Microsoft .NET Host FX Resolver - 5.0.3 (x64)
{879C9645-ADF3-4697-915B-00B76EBA629F};Microsoft .NET Runtime - 5.0.4 (x64)
{DD901386-A294-4FF1-A683-0EFF5C66209A};Microsoft .NET Host - 5.0.4 (x64)
{773EF543-570F-4746-953A-3CB19DFCB3E2};Microsoft .NET Host FX Resolver - 5.0.4 (x64)
{242DA4DC-A867-48E0-928D-3C522ECB19C7};Microsoft .NET Runtime - 5.0.5 (x64)
{C258244B-F999-4CEC-B86C-085AB582275A};Microsoft .NET Host - 5.0.5 (x64)
{B95E21EB-9D36-4DA0-8317-243E405DFBC8};Microsoft .NET Host FX Resolver - 5.0.5 (x64)
{DDBF9749-FF6E-419C-BAAD-9F4948B75DDE};Microsoft .NET Runtime - 5.0.6 (x64)
{0541E599-10CB-44F4-A33A-32FE6DEA2F49};Microsoft .NET Host - 5.0.6 (x64)
{54F41FBB-AB2F-46B5-AA28-3C9492066E9C};Microsoft .NET Host FX Resolver - 5.0.6 (x64)
{92A4F25F-BF29-4B3C-A206-7F46AEE24E9D};Microsoft .NET Runtime - 5.0.7 (x64)
{12B6D916-FD64-471C-8EF7-C04443A75F8D};Microsoft .NET Host - 5.0.7 (x64)
{7DFB3C1E-0E1D-40E9-B2B1-D05C0795950F};Microsoft .NET Host FX Resolver - 5.0.7 (x64)
{378936F7-16BD-4FC6-8676-1BB315774CEE};Microsoft .NET Runtime - 5.0.8 (x64)
{7B4FA5D2-7F01-41A3-82D0-3056633D78BF};Microsoft .NET Host - 5.0.8 (x64)
{D9147579-CAC4-4333-AA95-3AC86BBD2B10};Microsoft .NET Host FX Resolver - 5.0.8 (x64)
{D55E73D8-86EB-4FC3-A957-54616AA3D961};Microsoft .NET Runtime - 5.0.9 (x64)
{8313C056-53A4-4845-B03E-5C27165DC2F1};Microsoft .NET Host - 5.0.9 (x64)
{AB193EEE-76AF-43D3-BFC1-823EE43D7738};Microsoft .NET Host FX Resolver - 5.0.9 (x64)
{607A9135-1477-43AB-A8B0-7690DC1C58D3};Microsoft .NET Runtime - 5.0.10 (x64)
{D1368E0E-D6FB-4C42-9132-885E5C23DB05};Microsoft .NET Host - 5.0.10 (x64)
{0FFA44C0-CFC0-4C1B-AACC-2C4BE1CDDB37};Microsoft .NET Host FX Resolver - 5.0.10 (x64)
{9E190CBD-B034-491A-BD02-BDDBB4D67F74};Microsoft .NET Runtime - 5.0.11 (x64)
{15150450-57AB-4186-B520-329EED51AF7A};Microsoft .NET Host - 5.0.11 (x64)
{303BF805-644E-4A76-8964-B39786190EAC};Microsoft .NET Host FX Resolver - 5.0.11 (x64)
{84BBB763-AD8F-4033-8429-3DFC7C9FF3E2};Microsoft .NET Runtime - 5.0.12 (x64)
{B39AF887-9BA7-44B8-995F-0F21560E3F21};Microsoft .NET Host - 5.0.12 (x64)
{2A7F448F-0716-4DCF-93D1-7BEE91DAC0B6};Microsoft .NET Host FX Resolver - 5.0.12 (x64)

{B4FC1E81-3264-49A2-80C7-24C296546D67};Microsoft Windows Desktop Runtime - 5.0.0 (x64)
{54424219-B505-485F-B3DA-9F1DA802FFC5};Microsoft Windows Desktop Runtime - 5.0.1 (x64)
{36C48524-90A2-4ABD-B176-C0F3A7791942};Microsoft Windows Desktop Runtime - 5.0.2 (x64)
{3580906C-DC50-44E4-9C2B-6FE015370DD1};Microsoft Windows Desktop Runtime - 5.0.3 (x64)
{A04C83D6-2FC0-4F09-9166-E870E5A9E168};Microsoft Windows Desktop Runtime - 5.0.4 (x64)
{7775DCAB-09F3-4B8F-8C3D-872A76C07056};Microsoft Windows Desktop Runtime - 5.0.5 (x64)
{0F871294-4452-40AB-BAAD-A1D624E7E405};Microsoft Windows Desktop Runtime - 5.0.6 (x64)
{D89DEE08-B391-45F0-B4BD-EAFBA226E386};Microsoft Windows Desktop Runtime - 5.0.7 (x64)
{5AF14BB6-E7A1-4FD1-83EA-91E8FA123844};Microsoft Windows Desktop Runtime - 5.0.8 (x64)
{D9A03C1C-D245-4579-B4DC-0BB2BC87E6E7};Microsoft Windows Desktop Runtime - 5.0.9 (x64)
{008667B9-294F-45C3-BB03-E6FBC58B26AF};Microsoft Windows Desktop Runtime - 5.0.10 (x64)
{EB19F3DA-DB90-4269-BBD9-0FDC8056B372};Microsoft Windows Desktop Runtime - 5.0.11 (x64)
{3C1AF308-DCD3-4116-9A57-A68C7563F9CE};Microsoft Windows Desktop Runtime - 5.0.12 (x64)

{42FA1C47-718A-3946-9570-144D5B9FAFA9};Microsoft ASP.NET Core 5.0.0 Shared Framework (x64)
{538D264D-7A4A-32F4-ADE5-A3E1A371C99D};Microsoft ASP.NET Core 5.0.1 Shared Framework (x64)
{16CF34DE-5F61-3FB1-8E86-C216EF723C97};Microsoft ASP.NET Core 5.0.2 Shared Framework (x64)
{F83B2DFF-EA6A-3CBE-BB0D-3825BC74F747};Microsoft ASP.NET Core 5.0.3 Shared Framework (x64)
{4CFF18E0-1998-37CA-AAE3-F849BFF084F5};Microsoft ASP.NET Core 5.0.4 Shared Framework (x64)
{AAA849D6-177C-3964-A584-00FCBC7EE278};Microsoft ASP.NET Core 5.0.5 Shared Framework (x64)
{CF6CAF7B-A770-3206-B989-3266825FDC2E};Microsoft ASP.NET Core 5.0.6 Shared Framework (x64)
{DCCBB099-EF13-3D8D-9217-B63E0FB4E7D4};Microsoft ASP.NET Core 5.0.7 Shared Framework (x64)
{4978EB19-4EE2-3547-B070-DB601A6D5B0E};Microsoft ASP.NET Core 5.0.8 Shared Framework (x64)
{B3CDEF60-7D28-332C-8845-682E6DAAEA80};Microsoft ASP.NET Core 5.0.9 Shared Framework (x64)
{E2CD083D-70F3-31DE-B295-7D06B58FC815};Microsoft ASP.NET Core 5.0.10 Shared Framework (x64)
{3D00715C-E6E6-3F40-B075-594D6F9CCE23};Microsoft ASP.NET Core 5.0.11 Shared Framework (x64)
{B4AA5E13-84A5-364D-8F1D-9D6F38ACBA36};Microsoft ASP.NET Core 5.0.12 Shared Framework (x64)
